{
  "Actor": {
    "types": [
      "pilot",
      "mech",
      "union-crawler",
      "npc",
      "npc-mech",
      "bio-titan",
      "vehicle"
    ],
    "templates": {
      "has-hp": {
        "hp": {
          "value": 10,
          "max": 10
        }
      },
      "has-sp": {
        "sp": {
          "value": 10,
          "max": 10
        }
      },
      "has-description": {
        "description": ""
      }
    },
    "pilot": {
      "templates": ["has-hp"],
      "class": "",
      "callsign": "",
      "background": "",
      "ideal": "",
      "flaw": "",
      "keepsake": "",
      "motto": "",
      "ability-points": {
        "value": 5,
        "max": 5
      },
      "inventorySlots": 6,
      "skillPoints": 0
    },
    "mech": {
      "templates": ["has-sp", "has-description"],
      "quirk": "",
      "appearance": "",
      "energy-points": {
        "value": 10,
        "max": 10
      },
      "heat": {
        "value": 0,
        "max": 10
      },
      "system-slots": 0,
      "module-slots": 0
    },
    "vehicle": {
      "templates": ["has-sp", "has-description"],
      "techLevel": 1,
      "salvageValue": 1,
      "traits": []
    },
    "union-crawler": {
      "templates": ["has-sp", "has-description"],
      "type": "",
      "techLevel": "T1",
      "sp": {
        "max": 20,
        "value": 20
      },
      "upkeep": 5
    },
    "npc": {
      "templates": ["has-hp", "has-description"],
      "traits": [],
      "healthType": "hp"
    },
    "npc-mech": {
      "templates": ["has-sp", "has-description"],
      "chassis": "medium"
    },
    "bio-titan": {
      "templates": ["has-sp", "has-description"]
    }
  },
  "Item": {
    "types": [
      "equipment",
      "ability",
      "npc-ability",
      "chassis",
      "system",
      "module",
      "salvage",
      "crawler-bay",
      "crawler-npc"
    ],
    "templates": {
      "has-description": {
        "description": ""
      },
      "has-traits": {
        "traits": []
      },
      "rollable": {
        "table_id": ""
      },
      "pilot-item": {
        "ap": 0,
        "inventorySlot": false
      },
      "mech-item": {
        "techLevel": 1,
        "ep": 0,
        "heat": 0,
        "slots": 0,
        "cargo": 0,
        "salvageValue": 1,
        "status": 0
      }
    },
    "equipment": {
      "templates": ["pilot-item", "has-description", "rollable", "has-traits"],
      "inventorySlot": true,
      "range": "",
      "action": "",
      "damage": ""
    },
    "ability": {
      "templates": ["pilot-item", "has-description", "rollable", "has-traits"],
      "level": "core",
      "range": "",
      "action": ""
    },
    "npc-ability": {
      "templates": ["has-description", "rollable", "has-traits"]
    },
    "chassis": {
      "templates": ["has-description", "rollable", "mech-item"],
      "size": "standard",
      "displayName": "",
      "sp": 0,
      "systemSlots": 0,
      "moduleSlots": 0
    },
    "system": {
      "templates": ["mech-item", "has-description", "rollable", "has-traits"],
      "range": "",
      "action": "",
      "damage": ""
    },
    "module": {
      "templates": ["mech-item", "has-description", "rollable", "has-traits"],
      "range": "",
      "action": "",
      "damage": ""
    },
    "salvage": {
      "templates": ["has-description"],
      "inventorySlot": true,
      "salvageValue": 1,
      "techLevel": "T1"
    },
    "crawler-bay": {
      "templates": ["has-description", "rollable"],
      "status": 0,
      "npc_name": "",
      "npc_description": "",
      "npc_health": { "value": 4, "max": 4 },
      "npc_motto": "",
      "npc_keepsake": ""
    },
    "crawler-npc": {
      "templates": ["has-description"],
      "hp": { "value": 4, "max": 4 },
      "motto": "",
      "keepsake": ""
    }
  }
}
